%YAML 1.1
%TAG !u! tag:unity3d.com,2011:
--- !u!1045 &1
EditorBuildSettings:
  m_ObjectHideFlags: 0
  serializedVersion: 2
  m_Scenes:
  - enabled: 1
    path: Assets/Scenes/Level01.unity
    guid: 9fc0d4010bbf28b4594072e72b8655ab
  - enabled: 1
    path: Assets/Scenes/Level02.unity
    guid: 203caabde37cbdc49ab5af8710d3c5bd
  - enabled: 1
    path: Assets/Scenes/Level03.unity
    guid: 1ac74edead44f1848ad09d68198fac92
  m_configObjects: {}
